<?xml version="1.0" encoding="UTF-8"?>
<svg width="20px" height="20px" viewBox="0 0 20 20" version="1.1" xmlns="http://www.w3.org/2000/svg" xmlns:xlink="http://www.w3.org/1999/xlink">
    <title>Icon / Arrow Right / Grey 100</title>
    <g id="Flu360-LO-Clinical-Solutions-Detail-Page" stroke="none" stroke-width="1" fill="none" fill-rule="evenodd" stroke-linecap="round" stroke-linejoin="round">
        <g id="2" transform="translate(-1319.000000, -1748.000000)" stroke="#000000" stroke-width="2">
            <g id="Group-5" transform="translate(72.000000, 1279.000000)">
                <g id="Download" transform="translate(606.000000, 465.000000)">
                    <g id="download" transform="translate(639.000000, 2.000000)">
                        <g transform="translate(3.000000, 3.000000)">
                            <path d="M18,12 L18,16 C18,17.1045695 17.1045695,18 16,18 L2,18 C0.8954305,18 0,17.1045695 0,16 L0,12" id="Path"></path>
                            <polyline id="Path" points="4 7 9 12 14 7"></polyline>
                            <line x1="9" y1="12" x2="9" y2="0" id="Path"></line>
                        </g>
                    </g>
                </g>
            </g>
        </g>
    </g>
</svg>