<?xml version="1.0" encoding="UTF-8"?>
<svg width="80px" height="80px" viewBox="0 0 80 80" version="1.1" xmlns="http://www.w3.org/2000/svg" xmlns:xlink="http://www.w3.org/1999/xlink">
    <title>Group 5</title>
    <g id="Page-1" stroke="none" stroke-width="1" fill="none" fill-rule="evenodd">
        <g id="18606_4_flu360_LO_About_Desktop_V1" transform="translate(-295.000000, -836.000000)">
            <g id="Group-5" transform="translate(295.000000, 836.000000)">
                <circle id="Oval-Copy-5" fill="#EA181B" cx="40" cy="40" r="40"></circle>
                <g id="16029_CX_Iconography_library_v2-15-01-Copy" transform="translate(22.000000, 15.000000)" fill="#FFFFFF" fill-rule="nonzero">
                    <path d="M27.3999005,19.4106659 C27.3933079,17.1742023 26.1088026,15.1397082 24.0961455,14.1779356 L26.0510806,10.7522529 C26.3808206,10.1772189 26.1864192,9.44300839 25.6157021,9.10792524 L24.7620186,8.60263704 L25.6925336,6.95830936 C26.2474278,7.21523556 27.6047845,5.83639828 27.9121106,5.30541747 C28.0732226,5.02839506 28.1178635,4.69845357 28.0361865,4.38837096 C27.9545094,4.07828834 27.7532249,3.81354068 27.476732,3.65252558 L21.4326531,0.158329246 C20.859792,-0.17026147 20.1298773,0.029095918 19.8021176,0.603667994 C19.4947916,1.13464881 18.9484342,2.99308166 19.4606442,3.34421413 L18.5301293,4.98854182 L17.6764458,4.48325362 C17.1032497,4.15245643 16.3713857,4.34748111 16.0373735,4.92002817 L6.90296042,20.7038611 C6.57002386,21.2776629 7.89323324,23.350201 7.89323324,23.350201 C7.56029669,23.9240028 6.81759207,26.4932648 7.38955999,26.8272689 L11.4445565,29.1738615 C12.0165244,29.5078656 13.6982808,27.4610202 14.0056069,26.9043467 C14.0056069,26.9043467 16.6178783,27.1013235 16.9593517,26.5360859 L18.3167084,24.1980574 C20.3871816,25.6474664 23.1582349,25.5710181 25.1461762,24.0096449 C30.5499925,29.567815 28.3730997,41.3949845 17.9837718,41.3949845 C11.8201772,41.3949845 9.58352651,37.3954999 9.51523183,36.6675424 L11.7604194,37.9607376 L11.7604194,37.9607376 C12.6141028,38.4060763 14.3214698,35.3914756 13.5531546,34.8433663 L13.5531546,34.8433663 L2.02842781,28.1718493 C1.17474434,27.6751253 -0.635064615,30.7924966 0.227155688,31.2892206 L2.51502739,32.6166726 C1.45645988,36.8302623 6.5785607,43.2619815 11.0518621,43.861476 C7.68834921,44.5637409 6.69807638,45.8141151 6.69807638,46.430738 C6.69807638,47.2871587 7.38102316,49 8.22616979,49 L29.9609509,49 C33.5378847,49 40.4100366,33.0448829 27.3999005,19.4534869 M21.6033898,21.8857216 C20.2266788,21.8857216 19.110634,20.7660984 19.110634,19.3849733 C19.110634,18.0038481 20.2266788,16.8842249 21.6033898,16.8842249 C22.9801007,16.8842249 24.0961455,18.0038481 24.0961455,19.3849733 C24.0961455,20.048213 23.8335166,20.6842881 23.3660342,21.1532694 C22.8985519,21.6222507 22.2645097,21.8857216 21.6033898,21.8857216" id="Shape"></path>
                </g>
            </g>
        </g>
    </g>
</svg>