<?xml version="1.0" encoding="UTF-8"?>
<svg width="98px" height="46px" viewBox="0 0 98 46" version="1.1" xmlns="http://www.w3.org/2000/svg" xmlns:xlink="http://www.w3.org/1999/xlink">
    <title>Logo / Seqirus / White</title>
    <defs>
        <polygon id="path-1" points="0.06 0.626442035 97.894 0.626442035 97.894 32.251 0.06 32.251"></polygon>
    </defs>
    <g id="Design-Library" stroke="none" stroke-width="1" fill="none" fill-rule="evenodd">
        <g id="Logo-/-Seqirus-/-White" transform="translate(0.000000, 0.000000)">
            <path d="M48.62,29.594 C49.357,29.594 50.163,29.261 50.698,28.877 C51.253,28.481 51.649,27.965 51.931,27.336 C52.283,26.549 52.489,25.729 52.489,25.141 C52.489,24.115 52.209,23.289 51.649,22.664 C51.089,22.039 50.349,21.633 49.432,21.633 C48.364,21.633 47.458,22.06 46.714,22.914 C45.969,23.769 45.597,24.872 45.597,26.222 C45.597,27.263 45.879,28.101 46.443,28.736 C47.007,29.371 47.733,29.594 48.62,29.594 Z M53.427,18.972 L56.69,18.972 L54.175,37.108 L50.95,37.108 L51.914,30.926 C51.25,31.617 50.536,31.911 49.961,32.184 C49.384,32.456 48.737,32.592 48.021,32.592 C46.373,32.592 45.063,31.946 44.09,30.652 C43.117,29.358 42.631,27.853 42.631,26.136 C42.631,24.827 42.944,23.579 43.572,22.396 C44.2,21.212 45.043,20.288 46.1,19.625 C47.157,18.962 48.264,18.63 49.418,18.63 C50.193,18.63 50.908,18.812 51.562,19.174 C52.217,19.536 52.757,19.877 53.184,20.57 L53.427,18.972 L53.427,18.972 Z" id="Fill-1" fill="#FFFFFE"></path>
            <path d="M73.203,18.972 L76.427,18.972 L75.501,25.758 C75.402,26.506 75.354,27.068 75.354,27.442 C75.354,28.028 75.557,28.52 75.965,28.919 C76.372,29.318 76.901,29.517 77.553,29.517 C78.392,29.517 79.038,29.26 79.49,28.749 C79.942,28.235 80.274,27.194 80.486,25.624 L81.394,18.972 L84.622,18.972 L83.671,26.114 C83.45,27.724 83.081,28.971 82.563,29.853 C82.045,30.736 81.358,31.413 80.501,31.885 C79.644,32.357 78.637,32.592 77.479,32.592 C75.847,32.592 74.55,32.123 73.588,31.182 C72.625,30.242 72.144,29.027 72.144,27.538 C72.144,26.626 72.25,25.456 72.463,24.024 L73.203,18.972" id="Fill-2" fill="#FFFFFE"></path>
            <g id="Group-9">
                <mask id="mask-2" fill="white">
                    <use xlink:href="#path-1"></use>
                </mask>
                <g id="Clip-4"></g>
                <polyline id="Fill-3" fill="#FFFFFE" mask="url(#mask-2)" points="56.96 32.251 60.212 32.251 62.002 18.972 58.774 18.972 56.96 32.251"></polyline>
                <path d="M3.61,24.607 C1.807,20.603 6.396,14.564 13.86,11.12 C18.551,8.955 23.26,8.331 26.56,9.159 C23.301,7.184 17.221,7.505 11.171,10.296 C3.432,13.868 -1.325,20.128 0.544,24.281 C1.605,26.636 4.572,27.805 8.354,27.725 C6.071,27.305 4.354,26.259 3.61,24.607" id="Fill-5" fill="#FFFFFE" mask="url(#mask-2)"></path>
                <path d="M16.712,3.042 C8.258,6.354 0.939,13.074 0,18.237 C10.579,0.305 46.111,2.338 33.191,15.508 C49.22,6.171 33.518,-4.166 16.712,3.042" id="Fill-6" fill="#FFFFFE" mask="url(#mask-2)"></path>
                <polyline id="Fill-7" fill="#FFFFFE" mask="url(#mask-2)" points="94.33 19.299 94.916 19.299 94.916 20.868 95.298 20.868 95.298 19.299 95.887 19.299 95.887 18.942 94.33 18.942 94.33 19.299"></polyline>
                <path d="M97.451,18.942 L97.008,20.229 C97,20.254 96.992,20.278 96.984,20.301 C96.979,20.285 96.973,20.269 96.967,20.252 L96.547,18.993 L96.531,18.942 L96.048,18.942 L96.048,20.868 L96.423,20.868 L96.423,19.726 L96.795,20.82 L96.812,20.868 L97.129,20.868 L97.519,19.742 L97.519,20.868 L97.894,20.868 L97.894,18.942 L97.451,18.942" id="Fill-8" fill="#FFFFFE" mask="url(#mask-2)"></path>
            </g>
            <path d="M59.41,13.986 C59.392,13.988 59.052,16.733 59.052,16.733 L62.286,16.733 C62.339,14.847 60.537,13.804 59.41,13.986" id="Fill-10" fill="#FFFFFE"></path>
            <path d="M27.893,16.265 L26.156,18.951 C25.147,17.65 24.02,17.186 23.15,17.186 C22.718,17.186 22.36,17.314 22.076,17.57 C21.791,17.827 21.649,18.134 21.649,18.492 C21.649,18.826 21.778,19.008 22.039,19.415 C22.299,19.822 23.089,20.721 24.407,22.112 C25.106,22.853 25.753,23.471 25.973,23.78 C26.502,24.497 26.882,25.072 27.114,25.695 C27.346,26.317 27.462,26.95 27.462,27.592 C27.462,29.033 26.949,30.241 25.924,31.216 C24.899,32.194 23.398,32.681 21.795,32.681 C19.354,32.681 17.464,31.879 16.108,29.858 L17.853,27.023 C18.895,28.609 20.583,29.497 21.795,29.497 C22.373,29.497 23.046,29.309 23.441,28.934 C23.835,28.561 24.032,28.109 24.032,27.58 C24.032,27.165 23.912,26.743 23.673,26.311 C23.432,25.879 22.56,25.066 21.429,23.87 C20.233,22.609 19.448,21.657 19.073,21.014 C18.569,20.144 18.317,19.289 18.317,18.451 C18.317,17.345 18.679,16.352 19.403,15.473 C20.314,14.375 21.543,13.826 23.089,13.826 C25.212,13.826 26.802,14.737 27.893,16.265" id="Fill-11" fill="#FFFFFE"></path>
            <path d="M38.115,24.126 C38.195,23.606 38.003,22.723 37.456,22.184 C36.924,21.662 36.278,21.556 35.767,21.556 C34.97,21.556 34.19,21.787 33.607,22.296 C33.197,22.655 32.665,23.209 32.33,24.126 L38.115,24.126 Z M38.752,28.262 L40.074,30.721 C39.606,31.189 38.606,31.74 38.344,31.858 C37.586,32.199 36.573,32.594 35.279,32.594 C33.253,32.594 31.656,32.025 30.489,30.886 C29.321,29.747 28.737,28.234 28.737,26.346 C28.737,24.19 29.467,22.365 30.928,20.872 C32.388,19.379 33.871,18.633 35.938,18.633 C36.862,18.633 38.247,19.064 39.131,19.744 C40.277,20.625 40.687,21.48 40.722,21.55 C41.212,22.501 41.325,23.312 41.325,24.279 C41.325,24.661 41.243,26.053 41.162,26.566 L31.971,26.566 C32.004,27.489 32.307,28.224 32.881,28.771 C33.454,29.319 34.246,29.592 35.255,29.592 C35.976,29.592 37.707,29.396 38.752,28.262 L38.752,28.262 Z" id="Fill-12" fill="#FFFFFE"></path>
            <path d="M65.454,32.273 L62.274,32.273 L64.089,18.995 L66.992,18.995 L66.76,20.053 C68.017,18.4 69.718,18.867 70.206,19.122 C70.781,19.424 71.074,19.581 71.79,20.508 L70.226,22.965 C69.732,22.103 69.435,21.775 68.808,21.682 C67.66,21.511 66.812,22.634 66.812,22.634 L65.454,32.273" id="Fill-13" fill="#FFFFFE"></path>
            <path d="M93.625,20.673 L92.061,23.102 C91.821,22.759 91.323,22.27 91.094,22.106 C90.67,21.802 90.336,21.686 89.953,21.686 C89.659,21.686 89.223,21.86 89.019,22.023 C88.815,22.186 88.714,22.369 88.714,22.572 C88.714,22.768 88.795,22.963 88.958,23.158 C89.113,23.353 89.582,23.732 90.365,24.293 C91.613,25.188 92.435,25.956 92.831,26.593 C93.226,27.232 93.424,27.926 93.424,28.674 C93.424,29.659 93.019,30.59 92.21,31.469 C91.4,32.348 90.414,32.694 88.876,32.694 C87.989,32.694 87.181,32.515 86.454,32.157 C85.725,31.799 84.661,30.889 84.181,30.167 L85.752,27.662 C86.663,28.866 87.94,29.655 89.022,29.655 C89.454,29.655 89.798,29.551 90.053,29.344 C90.31,29.136 90.438,28.89 90.438,28.606 C90.438,28.377 90.34,28.144 90.145,27.904 C89.95,27.664 89.417,27.235 88.547,26.616 C87.538,25.9 86.841,25.286 86.46,24.773 C85.923,24.057 85.654,23.301 85.654,22.503 C85.654,21.389 86.075,20.481 86.918,19.782 C87.759,19.082 88.754,18.732 89.901,18.732 C90.707,18.732 91.471,18.923 92.195,19.306 C92.92,19.688 93.145,19.973 93.625,20.673" id="Fill-14" fill="#FFFFFE"></path>
            <path d="M18.756,43.363 L18.335,41.69 L17.32,43.363 L18.756,43.363 Z M18.904,43.956 L16.958,43.956 L16.377,44.916 L15.665,44.916 L18.162,40.866 L18.773,40.866 L19.835,44.916 L19.147,44.916 L18.904,43.956 L18.904,43.956 Z" id="Fill-15" fill="#FFFFFE"></path>
            <g id="Group-19" transform="translate(21.000000, 40.000000)" fill="#FFFFFE">
                <path d="M4.184,3.386 L4.848,3.386 C4.492,4.353 3.626,4.988 2.618,4.988 C1.461,4.988 0.673,4.122 0.886,2.9 C1.099,1.69 2.197,0.812 3.36,0.812 C4.368,0.812 5.003,1.447 5.02,2.414 L4.35,2.414 C4.309,1.791 3.905,1.435 3.247,1.435 C2.404,1.435 1.693,2.051 1.538,2.9 C1.39,3.772 1.906,4.366 2.731,4.366 C3.306,4.366 3.929,3.992 4.184,3.386" id="Fill-16"></path>
                <path d="M8.975,2.051 L8.328,2.051 C8.34,1.63 8.085,1.358 7.51,1.358 C6.935,1.358 6.549,1.63 6.549,2.046 C6.549,2.325 6.762,2.467 7.154,2.55 L7.634,2.651 C8.322,2.793 8.684,3.072 8.684,3.606 C8.684,4.43 7.955,5 6.911,5 C5.926,5 5.344,4.472 5.422,3.606 L6.063,3.606 C6.051,4.152 6.377,4.424 7.047,4.424 C7.646,4.424 7.996,4.164 7.996,3.778 C7.996,3.558 7.872,3.374 7.427,3.28 L6.798,3.143 C6.152,3 5.819,2.699 5.849,2.111 C5.89,1.239 6.703,0.8 7.563,0.8 C8.299,0.8 9.046,1.121 8.975,2.051" id="Fill-18"></path>
            </g>
            <polyline id="Fill-20" fill="#FFFFFE" points="33.272 44.33 33.171 44.916 30.371 44.916 31.083 40.883 31.73 40.883 31.118 44.33 33.272 44.33"></polyline>
            <path d="M38.632,43.386 L39.296,43.386 C38.94,44.353 38.074,44.988 37.066,44.988 C35.909,44.988 35.12,44.122 35.333,42.9 C35.547,41.69 36.644,40.812 37.807,40.812 C38.815,40.812 39.45,41.447 39.468,42.414 L38.798,42.414 C38.756,41.791 38.353,41.435 37.694,41.435 C36.852,41.435 36.14,42.051 35.985,42.9 C35.838,43.772 36.354,44.366 37.178,44.366 C37.754,44.366 38.376,43.992 38.632,43.386" id="Fill-21" fill="#FFFFFE"></path>
            <path d="M43.671,42.645 C43.671,41.969 43.226,41.429 42.466,41.429 C41.541,41.429 40.705,42.206 40.705,43.143 C40.705,43.82 41.15,44.371 41.897,44.371 C42.793,44.371 43.671,43.606 43.671,42.645 Z M44.323,42.591 C44.323,43.897 43.101,44.988 41.838,44.988 C40.776,44.988 40.052,44.211 40.052,43.208 C40.052,41.904 41.274,40.812 42.538,40.812 C43.599,40.812 44.323,41.589 44.323,42.591 L44.323,42.591 Z" id="Fill-22" fill="#FFFFFE"></path>
            <polyline id="Fill-23" fill="#FFFFFE" points="48.857 44.916 48.21 44.916 48.661 42.36 47.142 44.241 46.745 44.241 45.885 42.295 45.434 44.916 44.781 44.916 45.493 40.883 45.962 40.883 47.071 43.417 49.1 40.883 49.569 40.883 48.857 44.916"></polyline>
            <path d="M52.757,42.165 C52.757,41.744 52.437,41.482 51.916,41.482 L51.09,41.482 L50.806,43.114 L51.625,43.114 C52.277,43.114 52.757,42.699 52.757,42.165 Z M53.404,42.07 C53.404,43.013 52.586,43.707 51.453,43.707 L50.699,43.707 L50.486,44.916 L49.839,44.916 L50.55,40.883 L51.999,40.883 C52.846,40.883 53.404,41.34 53.404,42.07 L53.404,42.07 Z" id="Fill-24" fill="#FFFFFE"></path>
            <path d="M56.055,43.363 L55.633,41.69 L54.62,43.363 L56.055,43.363 Z M56.204,43.956 L54.257,43.956 L53.676,44.916 L52.965,44.916 L55.462,40.866 L56.073,40.866 L57.134,44.916 L56.446,44.916 L56.204,43.956 L56.204,43.956 Z" id="Fill-25" fill="#FFFFFE"></path>
            <polyline id="Fill-26" fill="#FFFFFE" points="61.973 40.883 61.261 44.916 60.746 44.916 58.877 42.051 58.373 44.916 57.726 44.916 58.438 40.883 58.847 40.883 60.799 43.837 61.327 40.883 61.973 40.883"></polyline>
            <polyline id="Fill-27" fill="#FFFFFE" points="64.372 43.541 64.365 43.541 64.128 44.916 63.469 44.916 63.713 43.529 62.55 40.883 63.268 40.883 64.116 42.841 65.659 40.883 66.465 40.883 64.372 43.541"></polyline>
        </g>
    </g>
</svg>